<svg width="1000" height="1000" viewBox="0 0 1000 1000" fill="none" xmlns="http://www.w3.org/2000/svg">
<path d="M0 700C0 700 400 700 500 700C600 700 700 600 700.027 500C700.055 400 700.027 0 700.027 0" stroke="black" stroke-width="25"/>
<path d="M800 0C800 0 800 350 800 500C800 650 650 800 500 800C350 800 0 800 0 800" stroke="black" stroke-width="25"/>
<path d="M0 900C0 900 300 900 500 900C700 900 900 699.5 900 500C900 300.5 900 0 900 0" stroke="black" stroke-width="25"/>
<path d="M300 0C300 99.5 400 200 500 200C600 200 1000 200 1000 200" stroke="black" stroke-width="25"/>
<path d="M1000 300C1000 300 650 300 500 300C350 300 200 150 200 0" stroke="black" stroke-width="25"/>
<path d="M0 600C0 600 425 600 500 600C575 600 600 575 600 500C600 425 600 0 600 0" stroke="black" stroke-width="25"/>
<path d="M400 0C400 50.5 450.5 100 500 100C549.5 100 1000 100 1000 100" stroke="black" stroke-width="25"/>
<path d="M100 0C100 200 300 400 500 400C700 400 1000 400 1000 400" stroke="black" stroke-width="25"/>
<path d="M1000 700C933.333 700 933.333 800 1000 800" stroke="black" stroke-width="25"/>
<path d="M700 1000C700 932 800 933.5 800 1000" stroke="black" stroke-width="25"/>
<path d="M600 1000C600 797.776 900 802.237 900 1000" stroke="black" stroke-width="25"/>
<path d="M200 1000V500C200 432 300 433.5 300 500V1000" stroke="black" stroke-width="25"/>
<path d="M100 1000V500C100 297.776 400 302.237 400 500V1000" stroke="black" stroke-width="25"/>
<path d="M1000 600C800.25 600 799.75 900 1000 900" stroke="black" stroke-width="25"/>
<path d="M-1.90735e-05 200C67.9999 200 66.4999 300 -1.90735e-05 300" stroke="black" stroke-width="25"/>
<path d="M-1.52588e-05 100C202.224 100 197.763 400 -1.52588e-05 400" stroke="black" stroke-width="25"/>
<rect x="113" y="686" width="74" height="30" fill="white"/>
<rect x="113" y="585" width="74" height="30" fill="white"/>
<rect x="313" y="885" width="74" height="30" fill="white"/>
<rect x="313" y="785" width="74" height="30" fill="white"/>
<rect x="613" y="85" width="74" height="30" fill="white"/>
<rect x="613" y="185" width="74" height="30" fill="white"/>
<rect x="813" y="285" width="74" height="30" fill="white"/>
<rect x="813" y="385" width="74" height="30" fill="white"/>
<rect x="785" y="187" width="74" height="30" transform="rotate(-90 785 187)" fill="white"/>
<rect x="886" y="187" width="74" height="30" transform="rotate(-90 886 187)" fill="white"/>
<rect x="85" y="887" width="74" height="30" transform="rotate(-90 85 887)" fill="white"/>
<rect x="387" y="687" width="75" height="30" transform="rotate(-90 387 687)" fill="white"/>
<rect x="285" y="687" width="75" height="30" transform="rotate(-90 285 687)" fill="white"/>
<rect x="186" y="887" width="74" height="30" transform="rotate(-90 186 887)" fill="white"/>
<rect x="585" y="387" width="74" height="30" transform="rotate(-90 585 387)" fill="white"/>
<path d="M686.5 387V313H716.5V387H686.5Z" fill="white"/>
</svg>
